%YAML 1.1
%TAG !u! tag:unity3d.com,2011:
--- !u!114 &11400000
MonoBehaviour:
  m_ObjectHideFlags: 0
  m_CorrespondingSourceObject: {fileID: 0}
  m_PrefabInstance: {fileID: 0}
  m_PrefabAsset: {fileID: 0}
  m_GameObject: {fileID: 0}
  m_Enabled: 1
  m_EditorHideFlags: 0
  m_Script: {fileID: 11500000, guid: f4d9e834ab1b62b4f9ecfc8196c88eb6, type: 3}
  m_Name: fa_Shoot
  m_EditorClassIdentifier: 
  Speed: 1.4
  Health: 25
  Color: {r: 0, g: 1, b: 0.97005177, a: 0}
